…
## List keys

Keys are basically paths to files on Amazon S3's store of CCAFS files


```r
cc_list_keys()
#> # A tibble: 1,000 x 7
#>    Key       LastModified  ETag   Size  Owner.ID   Owner.DisplayNa… StorageClass
#>    <chr>     <chr>         <chr>  <chr> <chr>      <chr>            <chr>       
#>  1 ccafs/    2014-02-28T1… "\"d4… 0     b1e110da4… amazonec2public… STANDARD    
#>  2 ccafs/20… 2014-07-01T0… "\"d7… 1171  b1e110da4… amazonec2public… STANDARD    
#>  3 ccafs/am… 2014-02-28T1… "\"1d… 1108… b1e110da4… amazonec2public… STANDARD    
#>  4 ccafs/cc… 2014-07-15T1… "\"d4… 0     b1e110da4… amazonec2public… STANDARD    
#>  5 ccafs/cc… 2014-11-10T2… "\"d4… 0     b1e110da4… amazonec2public… STANDARD    
#>  6 ccafs/cc… 2014-11-10T2… "\"d4… 0     b1e110da4… amazonec2public… STANDARD    
#>  7 ccafs/cc… 2014-11-10T2… "\"d4… 0     b1e110da4… amazonec2public… STANDARD    
#>  8 ccafs/cc… 2014-11-10T2… "\"d4… 0     b1e110da4… amazonec2public… STANDARD    
#>  9 ccafs/cc… 2014-11-10T2… "\"d4… 0     b1e110da4… amazonec2public… STANDARD    
#> 10 ccafs/cc… 2014-11-10T2… "\"d4… 0     b1e110da4… amazonec2public… STANDARD    
#> # … with 990 more rows
```
…
Key prefix


```r
cc_list_keys(prefix = "ccafs/ccafs-climate/data/ipcc_5ar_ciat_downscaled/")
#> # A tibble: 1,000 x 7
#>    Key       LastModified  ETag   Size  Owner.ID   Owner.DisplayNa… StorageClass
#>    <chr>     <chr>         <chr>  <chr> <chr>      <chr>            <chr>       
#>  1 ccafs/cc… 2014-11-10T2… "\"d4… 0     b1e110da4… amazonec2public… STANDARD    
#>  2 ccafs/cc… 2014-11-10T2… "\"d4… 0     b1e110da4… amazonec2public… STANDARD    
#>  3 ccafs/cc… 2014-11-10T2… "\"d4… 0     b1e110da4… amazonec2public… STANDARD    
#>  4 ccafs/cc… 2014-11-10T2… "\"d4… 0     b1e110da4… amazonec2public… STANDARD    
#>  5 ccafs/cc… 2014-11-10T2… "\"d4… 0     b1e110da4… amazonec2public… STANDARD    
#>  6 ccafs/cc… 2014-11-10T2… "\"6d… 1113… b1e110da4… amazonec2public… STANDARD    
#>  7 ccafs/cc… 2014-11-10T2… "\"cd… 9684… b1e110da4… amazonec2public… STANDARD    
#>  8 ccafs/cc… 2014-11-10T2… "\"d2… 1125… b1e110da4… amazonec2public… STANDARD    
#>  9 ccafs/cc… 2014-11-10T2… "\"8a… 90200 b1e110da4… amazonec2public… STANDARD    
#> 10 ccafs/cc… 2014-11-10T2… "\"e3… 5411… b1e110da4… amazonec2public… STANDARD    
#> # … with 990 more rows
```
…
