…
Max keys


```r
cc_list_keys(max = 3)
#> Error in vapply(elements, encode, character(1)): values must be length 1,
#>  but FUN(X[[2]]) result is length 0
```

Key prefix


```r
cc_list_keys(prefix = "ccafs/ccafs-climate/data/ipcc_5ar_ciat_downscaled/")
#> # A tibble: 1,000 × 5
#>                                                                            Key
#>                                                                          <chr>
#> 1                           ccafs/ccafs-climate/data/ipcc_5ar_ciat_downscaled/
#> 2                    ccafs/ccafs-climate/data/ipcc_5ar_ciat_downscaled/rcp2_6/
#> 3              ccafs/ccafs-climate/data/ipcc_5ar_ciat_downscaled/rcp2_6/2030s/
#> 4   ccafs/ccafs-climate/data/ipcc_5ar_ciat_downscaled/rcp2_6/2030s/bcc_csm1_1/
#> 5  ccafs/ccafs-climate/data/ipcc_5ar_ciat_downscaled/rcp2_6/2030s/bcc_csm1_1/1
#> 6  ccafs/ccafs-climate/data/ipcc_5ar_ciat_downscaled/rcp2_6/2030s/bcc_csm1_1/1
#> 7  ccafs/ccafs-climate/data/ipcc_5ar_ciat_downscaled/rcp2_6/2030s/bcc_csm1_1/1
#> 8  ccafs/ccafs-climate/data/ipcc_5ar_ciat_downscaled/rcp2_6/2030s/bcc_csm1_1/1
#> 9  ccafs/ccafs-climate/data/ipcc_5ar_ciat_downscaled/rcp2_6/2030s/bcc_csm1_1/1
#> 10 ccafs/ccafs-climate/data/ipcc_5ar_ciat_downscaled/rcp2_6/2030s/bcc_csm1_1/1
#> # ... with 990 more rows, and 4 more variables: LastModified <chr>,
#> #   ETag <chr>, Size <chr>, StorageClass <chr>
```
…
