• ccafs
…
install.packages("ccafs")

Dev version

devtools::install_github("ropensci/ccafs")

library("ccafs")

 List keys

Keys are basically paths to files on Amazon S3’s store of CCAFS files

cc_list_keys()
#> # A tibble: 1,000 × 5
#>                                                                           Key
#>                                                                         <chr>
#> 1                                                                      ccafs/
#> 2                              ccafs/2014-05-24-01-19-33-3A0DFF1F86F3E7F7.txt
#> 3                                                              ccafs/amzn.csv
#> 4                                                        ccafs/ccafs-climate/
#> 5                                                   ccafs/ccafs-climate/data/
#> 6                                               ccafs/ccafs-climate/data/eta/
#> 7                             ccafs/ccafs-climate/data/eta/eta_south_america/
#> 8                    ccafs/ccafs-climate/data/eta/eta_south_america/baseline/
#> 9              ccafs/ccafs-climate/data/eta/eta_south_america/baseline/1970s/
#> 10 ccafs/ccafs-climate/data/eta/eta_south_america/baseline/1970s/hadcm_cntrl/
#> # ... with 990 more rows, and 4 more variables: LastModified <chr>,
#> #   ETag <chr>, Size <chr>, StorageClass <chr>
Max keys

cc_list_keys(max = 3)
#> # A tibble: 3 × 5
#>                                              Key             LastModified
#>                                            <chr>                    <chr>
#> 1                                         ccafs/ 2014-02-28T15:15:45.000Z
#> 2 ccafs/2014-05-24-01-19-33-3A0DFF1F86F3E7F7.txt 2014-07-01T02:15:51.000Z
#> 3                                 ccafs/amzn.csv 2014-02-28T15:21:32.000Z
#> # ... with 3 more variables: ETag <chr>, Size <chr>, StorageClass <chr>

Key prefix

cc_list_keys(prefix = "ccafs/ccafs-climate/data/ipcc_5ar_ciat_downscaled/")
#> # A tibble: 1,000 × 5
#>                                                                            Key
#>                                                                          <chr>
#> 1                           ccafs/ccafs-climate/data/ipcc_5ar_ciat_downscaled/
#> 2                    ccafs/ccafs-climate/data/ipcc_5ar_ciat_downscaled/rcp2_6/
#> 3              ccafs/ccafs-climate/data/ipcc_5ar_ciat_downscaled/rcp2_6/2030s/
#> 4   ccafs/ccafs-climate/data/ipcc_5ar_ciat_downscaled/rcp2_6/2030s/bcc_csm1_1/
#> 5  ccafs/ccafs-climate/data/ipcc_5ar_ciat_downscaled/rcp2_6/2030s/bcc_csm1_1/1
#> 6  ccafs/ccafs-climate/data/ipcc_5ar_ciat_downscaled/rcp2_6/2030s/bcc_csm1_1/1
#> 7  ccafs/ccafs-climate/data/ipcc_5ar_ciat_downscaled/rcp2_6/2030s/bcc_csm1_1/1
#> 8  ccafs/ccafs-climate/data/ipcc_5ar_ciat_downscaled/rcp2_6/2030s/bcc_csm1_1/1
#> 9  ccafs/ccafs-climate/data/ipcc_5ar_ciat_downscaled/rcp2_6/2030s/bcc_csm1_1/1
#> 10 ccafs/ccafs-climate/data/ipcc_5ar_ciat_downscaled/rcp2_6/2030s/bcc_csm1_1/1
#> # ... with 990 more rows, and 4 more variables: LastModified <chr>,
#> #   ETag <chr>, Size <chr>, StorageClass <chr>
…
